Convert Colour to DMC Embroidery Floss and Back • dmc
…
Again, the visualization can be turned off:

undmc(310, visualize = FALSE)
#> # A tibble: 1 x 6
#>   dmc   name  hex       red green  blue
#>   <chr> <chr> <chr>   <dbl> <dbl> <dbl>
#> 1 310   Black #000000     0     0     0

undmc() mostly just takes the DMC floss number, except in cases where there isn’t one (e.g., Ecru).

A full list of floss colours in the package is available via floss:

floss
#> # A tibble: 454 x 6
#>    dmc   name                hex       red green  blue
#>    <chr> <chr>               <chr>   <dbl> <dbl> <dbl>
#>  1 3713  Salmon - Very Light #FFE2E2   255   226   226
#>  2 761   Salmon - Light      #FFC9C9   255   201   201
#>  3 760   Salmon              #F5ADAD   245   173   173
#>  4 3712  Salmon - Medium     #F18787   241   135   135
#>  5 3328  Salmon - Dark       #E36D6D   227   109   109
#>  6 347   Salmon - Very Dark  #BF2D2D   191    45    45
#>  7 353   Peach               #FED7CC   254   215   204
#>  8 352   Coral - Light       #FD9C97   253   156   151
#>  9 351   Coral               #E96A67   233   106   103
#> 10 350   Coral - Medium      #E04848   224    72    72
#> # … with 444 more rows
…
