…
This mostly just takes the DMC floss number, except in cases where there
isn’t one (e.g., Ecru).

A full list of floss colors in the package is available via `floss`:

``` r
floss
#> # A tibble: 454 x 6
#>    dmc   name                  hex       red green  blue
#>    <chr> <chr>                 <chr>   <dbl> <dbl> <dbl>
#>  1 150   Dusty Rose Ult Vy Dk  #AB0249   171     2    73
#>  2 151   Dusty Rose Vry Lt     #F0CED4   240   206   212
#>  3 152   Shell Pink Med Light  #E2A099   226   160   153
#>  4 153   Violet Very Light     #E6CCD9   230   204   217
#>  5 154   Grape Very Dark       #572433    87    36    51
#>  6 155   Blue Violet Med Dark  #9891B6   152   145   182
#>  7 156   Blue Violet Med Lt    #A3AED1   163   174   209
#>  8 157   Cornflower Blue Vy Lt #BBC3D9   187   195   217
#>  9 158   Cornflower Blu M V D  #4C526E    76    82   110
#> 10 159   Blue Gray Light       #C7CAD7   199   202   215
#> # … with 444 more rows
```
…
